{
  "images" : [
    {
      "idiom" : "universal",
      "scale" : "1x"
    },
    {
      "filename" : "MV5BMWY1NDE2NTAtMWU0OS00NGI3LWJiZTMtZTcwNzllZGY1M2EwXkEyXkFqcGdeQXVyNjg2NjQwMDQ_._V1_SX1777_CR0_0_1777_943_AL_.0.jpg",
      "idiom" : "universal",
      "scale" : "2x"
    },
    {
      "idiom" : "universal",
      "scale" : "3x"
    }
  ],
  "info" : {
    "author" : "xcode",
    "version" : 1
  }
}
